id,imsi,isActive,cardNumber,expireDate
1,1234567890,true,"1234567890001234","0921"
2,1234567890,true,"1324567891101114","0323"
3,9897782322,true,"2134507899001394","1121"
4,4234567890,true,"7014167877014345","0222"